…
``` r
RT_dt <- RT_dt %>%
  group_by(Sample, time) %>%
  mutate(Percentage= round(100*cell_count/sum(cell_count),2))
RT_dt 
```

    ## # A tibble: 36 x 5
    ## # Groups:   Sample, time [12]
    ##    Sample   time RT       cell_count Percentage
    ##    <chr>   <int> <chr>         <int>      <dbl>
    ##  1 GUSU2OS     0 Early S         215       60.7
    ##  2 GUSU2OS     0 Middle S        105       29.7
    ##  3 GUSU2OS     0 Late S           34        9.6
    ##  4 GUSU2OS     4 Early S         221       54.3
    ##  5 GUSU2OS     4 Middle S        151       37.1
    ##  6 GUSU2OS     4 Late S           35        8.6
    ##  7 GUSU2OS     6 Early S         159       39.4
    ##  8 GUSU2OS     6 Middle S        164       40.7
    ##  9 GUSU2OS     6 Late S           80       19.8
    ## 10 GUSU2OS     8 Early S          48       15.0
    ## # … with 26 more rows

``` r
RT_dt$RT <- factor(RT_dt$RT, levels= c("Late S","Middle S","Early S"))
RT_dt$sample_order <- factor(RT_dt$Sample, levels= c("FUSClone110","GUSClone110","GUSU2OS"))
RT_dt
```

    ## # A tibble: 36 x 6
    ## # Groups:   Sample, time [12]
    ##    Sample   time RT       cell_count Percentage sample_order
    ##    <chr>   <int> <fct>         <int>      <dbl> <fct>       
    ##  1 GUSU2OS     0 Early S         215       60.7 GUSU2OS     
    ##  2 GUSU2OS     0 Middle S        105       29.7 GUSU2OS     
    ##  3 GUSU2OS     0 Late S           34        9.6 GUSU2OS     
    ##  4 GUSU2OS     4 Early S         221       54.3 GUSU2OS     
    ##  5 GUSU2OS     4 Middle S        151       37.1 GUSU2OS     
    ##  6 GUSU2OS     4 Late S           35        8.6 GUSU2OS     
    ##  7 GUSU2OS     6 Early S         159       39.4 GUSU2OS     
    ##  8 GUSU2OS     6 Middle S        164       40.7 GUSU2OS     
    ##  9 GUSU2OS     6 Late S           80       19.8 GUSU2OS     
    ## 10 GUSU2OS     8 Early S          48       15.0 GUSU2OS     
    ## # … with 26 more rows
…
