…
``` r
# write.csv(FUS_norm_x,file = "results/FUS_norm_x.csv")
```

``` r
FUS_norm_x%>%
group_by(UNIPROT) %>% dplyr::filter(n()>1) %>% summarize(n=n())
```

    ## # A tibble: 28 x 2
    ##    UNIPROT     n
    ##    <chr>   <int>
    ##  1 P0C0L4      2
    ##  2 P0C0L5      2
    ##  3 P22392      2
    ##  4 P31941      2
    ##  5 P35226      2
    ##  6 P47929      2
    ##  7 P49674      2
    ##  8 P62805     14
    ##  9 P63162      2
    ## 10 P68431     10
    ## # … with 18 more rows
…
